module gitlab.com/phl0/challenge-onefootball

go 1.12

require (
	github.com/PuerkitoBio/goquery v1.5.0 // indirect
	github.com/antchfx/htmlquery v1.0.0 // indirect
	github.com/antchfx/xmlquery v1.0.0 // indirect
	github.com/antchfx/xpath v0.0.0-20190319080838-ce1d48779e67 // indirect
	github.com/go-test/deep v1.0.1
	github.com/gobwas/glob v0.2.3 // indirect
	github.com/gocolly/colly v1.2.0
	github.com/kennygrant/sanitize v1.2.4 // indirect
	github.com/pkg/errors v0.8.1
	github.com/saintfish/chardet v0.0.0-20120816061221-3af4cd4741ca // indirect
	github.com/sirupsen/logrus v1.4.1
	github.com/temoto/robotstxt v0.0.0-20180810133444-97ee4a9ee6ea // indirect
	golang.org/x/net v0.0.0-20190514140710-3ec191127204 // indirect
	golang.org/x/sync v0.0.0-20190423024810-112230192c58 // indirect
	google.golang.org/appengine v1.6.0 // indirect
)
